{
  "images" : [
    {
      "size" : "57x57",
      "idiom" : "iphone",
      "filename" : "apple-icon-57x57.png",
      "scale" : "1x"
    },
    {
      "size" : "60x60",
      "idiom" : "iphone",
      "filename" : "apple-icon-60x60.png",
      "scale" : "1x"
    },
    {
      "size" : "76x76",
      "idiom" : "ipad",
      "filename" : "apple-icon-76x76.png",
      "scale" : "1x"
    }    
  ],
  "info" : {
    "version" : 1,
    "author" : "xcode"
  }
}
